
     Program PWSCF v.6.4.1 starts on 29Apr2021 at 12:34:43 

     This program is part of the open-source Quantum ESPRESSO suite
     for quantum simulation of materials; please cite
         "P. Giannozzi et al., J. Phys.:Condens. Matter 21 395502 (2009);
         "P. Giannozzi et al., J. Phys.:Condens. Matter 29 465901 (2017);
          URL http://www.quantum-espresso.org", 
     in publications or presentations arising from this work. More details at
     http://www.quantum-espresso.org/quote

     Serial version
     Reading input from pw.graphite.bands.in

     Current dimensions of program PWSCF are:
     Max number of different atomic species (ntypx) = 10
     Max number of k-points (npk) =  40000
     Max angular momentum in pseudopotentials (lmaxx) =  3

     Atomic positions and unit cell read from directory:
     ./graphite.save/

               file C.pbe-n-kjpaw_psl.1.0.0.UPF: wavefunction(s)  2S 2P renormalized
     Message from routine setup:
     DEPRECATED: symmetry with ibrav=0, use correct ibrav instead

     G-vector sticks info
     --------------------
     sticks:   dense  smooth     PW     G-vecs:    dense   smooth      PW
     Sum         559     253     85                28691     8523    1613



     bravais-lattice index     =            0
     lattice parameter (alat)  =       4.7200  a.u.
     unit-cell volume          =     248.2810 (a.u.)^3
     number of atoms/cell      =            4
     number of atomic types    =            1
     number of electrons       =        16.00
     number of Kohn-Sham states=           20
     kinetic-energy cutoff     =      40.0000  Ry
     charge density cutoff     =     360.0000  Ry
     Exchange-correlation      = SLA PW PBX PBC ( 1  4  3  4 0 0)

     celldm(1)=   4.720000  celldm(2)=   0.000000  celldm(3)=   0.000000
     celldm(4)=   0.000000  celldm(5)=   0.000000  celldm(6)=   0.000000

     crystal axes: (cart. coord. in units of alat)
               a(1) = (  -0.500000  -0.866025   0.000000 )  
               a(2) = (  -0.500000   0.866025   0.000000 )  
               a(3) = (   0.000000   0.000000  -2.726384 )  

     reciprocal axes: (cart. coord. in units 2 pi/alat)
               b(1) = ( -1.000000 -0.577351 -0.000000 )  
               b(2) = ( -1.000000  0.577351  0.000000 )  
               b(3) = ( -0.000000  0.000000 -0.366786 )  


     PseudoPot. # 1 for C  read from file:
     ./pseudo/C.pbe-n-kjpaw_psl.1.0.0.UPF
     MD5 check sum: 5d2aebdfa2cae82b50a7e79e9516da0f
     Pseudo is Projector augmented-wave + core cor, Zval =  4.0
     Generated using "atomic" code by A. Dal Corso v.5.1
     Shape of augmentation charge: PSQ
     Using radial grid of 1073 points,  4 beta functions with: 
                l(1) =   0
                l(2) =   0
                l(3) =   1
                l(4) =   1
     Q(r) pseudized with 0 coefficients 


     atomic species   valence    mass     pseudopotential
        C              4.00    12.01070     C ( 1.00)

     24 Sym. Ops., with inversion, found (12 have fractional translation)



   Cartesian axes

     site n.     atom                  positions (alat units)
         1           C   tau(   1) = (   0.0000000   0.0000000   0.0000000  )
         2           C   tau(   2) = (   0.0000000   0.0000000  -1.3631920  )
         3           C   tau(   3) = (  -0.5000000  -0.2886750   0.0000000  )
         4           C   tau(   4) = (  -0.5000000   0.2886750  -1.3631920  )

     number of k points=   151

     Number of k-points >= 100: set verbosity='high' to print them.

     Dense  grid:    28691 G-vectors     FFT dimensions: (  30,  30,  80)

     Smooth grid:     8523 G-vectors     FFT dimensions: (  20,  20,  54)

     Estimated max dynamical RAM per process >      30.47 MB

     Check: negative core charge=   -0.000011

     The potential is recalculated from file :
     ./graphite.save/charge-density

     Starting wfcs are   16 randomized atomic wfcs +    4 random wfcs

     Band Structure Calculation
     Davidson diagonalization with overlap

     ethr =  6.25E-09,  avg # of iterations = 16.4

     total cpu time spent up to now is       20.6 secs

     End of band structure calculation

     Number of k-points >= 100: set verbosity='high' to print the bands.

     Writing output data file graphite.save/

     init_run     :      0.32s CPU      0.36s WALL (       1 calls)
     electrons    :     19.62s CPU     19.74s WALL (       1 calls)

     Called by init_run:
     wfcinit      :      0.00s CPU      0.00s WALL (       1 calls)
     potinit      :      0.15s CPU      0.16s WALL (       1 calls)
     hinit0       :      0.14s CPU      0.14s WALL (       1 calls)

     Called by electrons:
     c_bands      :     19.62s CPU     19.74s WALL (       1 calls)
     v_of_rho     :      0.03s CPU      0.03s WALL (       1 calls)
     newd         :      0.02s CPU      0.04s WALL (       1 calls)
     PAW_pot      :      0.11s CPU      0.12s WALL (       1 calls)

     Called by c_bands:
     init_us_2    :      0.03s CPU      0.03s WALL (     151 calls)
     cegterg      :     18.10s CPU     18.19s WALL (     164 calls)

     Called by sum_band:

     Called by *egterg:
     h_psi        :     10.54s CPU     10.62s WALL (    2789 calls)
     s_psi        :      0.82s CPU      0.83s WALL (    2789 calls)
     g_psi        :      0.08s CPU      0.08s WALL (    2474 calls)
     cdiaghg      :      1.98s CPU      1.99s WALL (    2625 calls)

     Called by h_psi:
     h_psi:pot    :     10.49s CPU     10.56s WALL (    2789 calls)
     h_psi:calbec :      0.96s CPU      0.97s WALL (    2789 calls)
     vloc_psi     :      8.69s CPU      8.75s WALL (    2789 calls)
     add_vuspsi   :      0.83s CPU      0.84s WALL (    2789 calls)

     General routines
     calbec       :      0.96s CPU      0.96s WALL (    2789 calls)
     fft          :      0.01s CPU      0.01s WALL (      13 calls)
     ffts         :      0.00s CPU      0.00s WALL (       1 calls)
     fftw         :      7.86s CPU      7.93s WALL (   57082 calls)
     interpolate  :      0.00s CPU      0.00s WALL (       1 calls)
     davcio       :      0.03s CPU      0.04s WALL (     302 calls)


     PWSCF        :     20.46s CPU     20.72s WALL


   This run was terminated on:  12:35: 4  29Apr2021            

=------------------------------------------------------------------------------=
   JOB DONE.
=------------------------------------------------------------------------------=
